^C:\USERS\한영학\SOURCE\REPOS\MAPEDITOR\MAPEDITOR\DEBUG\CCONTROLVIEW.OBJ|C:\USERS\한영학\SOURCE\REPOS\MAPEDITOR\MAPEDITOR\DEBUG\CMINIMAPVIEW.OBJ|C:\USERS\한영학\SOURCE\REPOS\MAPEDITOR\MAPEDITOR\DEBUG\MAINFRM.OBJ|C:\USERS\한영학\SOURCE\REPOS\MAPEDITOR\MAPEDITOR\DEBUG\MAPEDITOR.OBJ|C:\USERS\한영학\SOURCE\REPOS\MAPEDITOR\MAPEDITOR\DEBUG\MAPEDITOR.RES|C:\USERS\한영학\SOURCE\REPOS\MAPEDITOR\MAPEDITOR\DEBUG\MAPEDITORDOC.OBJ|C:\USERS\한영학\SOURCE\REPOS\MAPEDITOR\MAPEDITOR\DEBUG\MAPEDITORVIEW.OBJ|C:\USERS\한영학\SOURCE\REPOS\MAPEDITOR\MAPEDITOR\DEBUG\STDAFX.OBJ|C:\USERS\한영학\SOURCE\REPOS\MAPEDITOR\MAPEDITOR\DEBUG\TESTDLG.OBJ
C:\USERS\한영학\SOURCE\REPOS\MAPEDITOR\MAPEDITOR\DEBUG\MAPEDITOR.RES
C:\USERS\한영학\SOURCE\REPOS\MAPEDITOR\MAPEDITOR\DEBUG\CCONTROLVIEW.OBJ
C:\USERS\한영학\SOURCE\REPOS\MAPEDITOR\MAPEDITOR\DEBUG\CMINIMAPVIEW.OBJ
C:\USERS\한영학\SOURCE\REPOS\MAPEDITOR\MAPEDITOR\DEBUG\MAINFRM.OBJ
C:\USERS\한영학\SOURCE\REPOS\MAPEDITOR\MAPEDITOR\DEBUG\MAPEDITOR.OBJ
C:\USERS\한영학\SOURCE\REPOS\MAPEDITOR\MAPEDITOR\DEBUG\MAPEDITORDOC.OBJ
C:\USERS\한영학\SOURCE\REPOS\MAPEDITOR\MAPEDITOR\DEBUG\MAPEDITORVIEW.OBJ
C:\USERS\한영학\SOURCE\REPOS\MAPEDITOR\MAPEDITOR\DEBUG\STDAFX.OBJ
C:\USERS\한영학\SOURCE\REPOS\MAPEDITOR\MAPEDITOR\DEBUG\TESTDLG.OBJ
C:\WINDOWS\SYSTEM32\TZRES.DLL
C:\WINDOWS\GLOBALIZATION\SORTING\SORTDEFAULT.NLS
C:\PROGRAM FILES (X86)\MICROSOFT VISUAL STUDIO\2017\COMMUNITY\VC\TOOLS\MSVC\14.16.27023\INCLUDE\MANIFEST\DPIAWARE.MANIFEST
C:\PROGRAM FILES (X86)\MICROSOFT VISUAL STUDIO\2017\COMMUNITY\VC\TOOLS\MSVC\14.16.27023\ATLMFC\LIB\X86\MFC140UD.LIB
C:\PROGRAM FILES (X86)\MICROSOFT VISUAL STUDIO\2017\COMMUNITY\VC\TOOLS\MSVC\14.16.27023\ATLMFC\LIB\X86\MFCS140UD.LIB
C:\PROGRAM FILES (X86)\MICROSOFT VISUAL STUDIO\2017\COMMUNITY\VC\TOOLS\MSVC\14.16.27023\LIB\X86\MSVCRTD.LIB
C:\PROGRAM FILES (X86)\WINDOWS KITS\10\LIB\10.0.17763.0\UM\X86\KERNEL32.LIB
C:\PROGRAM FILES (X86)\WINDOWS KITS\10\LIB\10.0.17763.0\UM\X86\USER32.LIB
C:\PROGRAM FILES (X86)\WINDOWS KITS\10\LIB\10.0.17763.0\UM\X86\GDI32.LIB
C:\PROGRAM FILES (X86)\WINDOWS KITS\10\LIB\10.0.17763.0\UM\X86\MSIMG32.LIB
C:\PROGRAM FILES (X86)\WINDOWS KITS\10\LIB\10.0.17763.0\UM\X86\COMDLG32.LIB
C:\PROGRAM FILES (X86)\WINDOWS KITS\10\LIB\10.0.17763.0\UM\X86\WINSPOOL.LIB
C:\PROGRAM FILES (X86)\WINDOWS KITS\10\LIB\10.0.17763.0\UM\X86\ADVAPI32.LIB
C:\PROGRAM FILES (X86)\WINDOWS KITS\10\LIB\10.0.17763.0\UM\X86\SHELL32.LIB
C:\PROGRAM FILES (X86)\WINDOWS KITS\10\LIB\10.0.17763.0\UM\X86\COMCTL32.LIB
C:\PROGRAM FILES (X86)\WINDOWS KITS\10\LIB\10.0.17763.0\UM\X86\SHLWAPI.LIB
C:\PROGRAM FILES (X86)\WINDOWS KITS\10\LIB\10.0.17763.0\UM\X86\UXTHEME.LIB
C:\PROGRAM FILES (X86)\WINDOWS KITS\10\LIB\10.0.17763.0\UM\X86\WINDOWSCODECS.LIB
C:\PROGRAM FILES (X86)\WINDOWS KITS\10\LIB\10.0.17763.0\UM\X86\UUID.LIB
C:\PROGRAM FILES (X86)\MICROSOFT VISUAL STUDIO\2017\COMMUNITY\VC\TOOLS\MSVC\14.16.27023\ATLMFC\LIB\X86\ATLS.LIB
C:\PROGRAM FILES (X86)\WINDOWS KITS\10\LIB\10.0.17763.0\UM\X86\OLE32.LIB
C:\PROGRAM FILES (X86)\WINDOWS KITS\10\LIB\10.0.17763.0\UM\X86\OLEAUT32.LIB
C:\PROGRAM FILES (X86)\WINDOWS KITS\10\LIB\10.0.17763.0\UM\X86\OLEDLG.LIB
C:\PROGRAM FILES (X86)\WINDOWS KITS\10\LIB\10.0.17763.0\UM\X86\URLMON.LIB
C:\PROGRAM FILES (X86)\WINDOWS KITS\10\LIB\10.0.17763.0\UM\X86\GDIPLUS.LIB
C:\PROGRAM FILES (X86)\MICROSOFT VISUAL STUDIO\2017\COMMUNITY\VC\TOOLS\MSVC\14.16.27023\LIB\X86\COMSUPPWD.LIB
C:\PROGRAM FILES (X86)\MICROSOFT VISUAL STUDIO\2017\COMMUNITY\VC\TOOLS\MSVC\14.16.27023\LIB\X86\OLDNAMES.LIB
C:\PROGRAM FILES (X86)\WINDOWS KITS\10\LIB\10.0.17763.0\UM\X86\WININET.LIB
C:\PROGRAM FILES (X86)\WINDOWS KITS\10\LIB\10.0.17763.0\UM\X86\WS2_32.LIB
C:\PROGRAM FILES (X86)\WINDOWS KITS\10\LIB\10.0.17763.0\UM\X86\MSWSOCK.LIB
C:\PROGRAM FILES (X86)\MICROSOFT VISUAL STUDIO\2017\COMMUNITY\VC\TOOLS\MSVC\14.16.27023\LIB\X86\VCRUNTIMED.LIB
C:\PROGRAM FILES (X86)\WINDOWS KITS\10\LIB\10.0.17763.0\UCRT\X86\UCRTD.LIB
C:\PROGRAM FILES (X86)\WINDOWS KITS\10\BIN\10.0.17763.0\X86\MT.EXE
C:\PROGRAM FILES (X86)\WINDOWS KITS\10\BIN\10.0.17763.0\X86\RC.EXE
C:\PROGRAM FILES (X86)\MICROSOFT VISUAL STUDIO\2017\COMMUNITY\VC\TOOLS\MSVC\14.16.27023\BIN\HOSTX86\X86\CVTRES.EXE
