^C:\USERS\한영학\SOURCE\REPOS\MAPEDITOR\MAPEDITOR\DEBUG\CCONTROLVIEW.OBJ|C:\USERS\한영학\SOURCE\REPOS\MAPEDITOR\MAPEDITOR\DEBUG\CMINIMAPVIEW.OBJ|C:\USERS\한영학\SOURCE\REPOS\MAPEDITOR\MAPEDITOR\DEBUG\MAINFRM.OBJ|C:\USERS\한영학\SOURCE\REPOS\MAPEDITOR\MAPEDITOR\DEBUG\MAPEDITOR.OBJ|C:\USERS\한영학\SOURCE\REPOS\MAPEDITOR\MAPEDITOR\DEBUG\MAPEDITOR.RES|C:\USERS\한영학\SOURCE\REPOS\MAPEDITOR\MAPEDITOR\DEBUG\MAPEDITORDOC.OBJ|C:\USERS\한영학\SOURCE\REPOS\MAPEDITOR\MAPEDITOR\DEBUG\MAPEDITORVIEW.OBJ|C:\USERS\한영학\SOURCE\REPOS\MAPEDITOR\MAPEDITOR\DEBUG\STDAFX.OBJ|C:\USERS\한영학\SOURCE\REPOS\MAPEDITOR\MAPEDITOR\DEBUG\TESTDLG.OBJ
C:\USERS\한영학\SOURCE\REPOS\MAPEDITOR\DEBUG\MAPEDITOR.EXE
C:\USERS\한영학\SOURCE\REPOS\MAPEDITOR\DEBUG\MAPEDITOR.ILK
C:\USERS\한영학\SOURCE\REPOS\MAPEDITOR\DEBUG\MAPEDITOR.PDB
