^C:\JU\KPU\4-2\MFC\SOURCE\SERVER\CCHILDSOCK.CPP|C:\JU\KPU\4-2\MFC\SOURCE\SERVER\CLISTENSOCK.CPP|C:\JU\KPU\4-2\MFC\SOURCE\SERVER\SERVER.CPP|C:\JU\KPU\4-2\MFC\SOURCE\SERVER\SERVERDLG.CPP
C:\JU\KPU\4-2\MFC\SOURCE\SERVER\DEBUG\VC141.PDB
C:\JU\KPU\4-2\MFC\SOURCE\SERVER\DEBUG\VC141.IDB
C:\JU\KPU\4-2\MFC\SOURCE\SERVER\DEBUG\SERVERDLG.OBJ
C:\JU\KPU\4-2\MFC\SOURCE\SERVER\DEBUG\SERVER.OBJ
^C:\JU\KPU\4-2\MFC\SOURCE\SERVER\STDAFX.CPP
C:\JU\KPU\4-2\MFC\SOURCE\SERVER\DEBUG\SERVER.PCH
C:\JU\KPU\4-2\MFC\SOURCE\SERVER\DEBUG\VC141.PDB
C:\JU\KPU\4-2\MFC\SOURCE\SERVER\DEBUG\VC141.IDB
C:\JU\KPU\4-2\MFC\SOURCE\SERVER\DEBUG\STDAFX.OBJ
^C:\JU\KPU\4-2\MFC\SOURCE\SERVER\CHILDSOCK.CPP|C:\JU\KPU\4-2\MFC\SOURCE\SERVER\LISTENSOCK.CPP|C:\JU\KPU\4-2\MFC\SOURCE\SERVER\SERVER.CPP|C:\JU\KPU\4-2\MFC\SOURCE\SERVER\SERVERDLG.CPP
C:\JU\KPU\4-2\MFC\SOURCE\SERVER\DEBUG\VC141.PDB
C:\JU\KPU\4-2\MFC\SOURCE\SERVER\DEBUG\VC141.IDB
C:\JU\KPU\4-2\MFC\SOURCE\SERVER\DEBUG\SERVERDLG.OBJ
C:\JU\KPU\4-2\MFC\SOURCE\SERVER\DEBUG\SERVER.OBJ
C:\JU\KPU\4-2\MFC\SOURCE\SERVER\DEBUG\LISTENSOCK.OBJ
C:\JU\KPU\4-2\MFC\SOURCE\SERVER\DEBUG\CHILDSOCK.OBJ
^C:\JU\KPU\4-2\MFC\SOURCE\SERVER\CHILDSOCK.CPP
C:\JU\KPU\4-2\MFC\SOURCE\SERVER\DEBUG\VC141.PDB
^C:\JU\KPU\4-2\MFC\SOURCE\SERVER\LISTENSOCK.CPP
C:\JU\KPU\4-2\MFC\SOURCE\SERVER\DEBUG\VC141.PDB
^C:\JU\KPU\4-2\MFC\SOURCE\SERVER\SERVER.CPP
C:\JU\KPU\4-2\MFC\SOURCE\SERVER\DEBUG\VC141.PDB
^C:\JU\KPU\4-2\MFC\SOURCE\SERVER\SERVERDLG.CPP
C:\JU\KPU\4-2\MFC\SOURCE\SERVER\DEBUG\VC141.PDB
