^C:\USERS\SKUIN\SOURCE\REPOS\MFC20190923\STDAFX.CPP
C:\USERS\SKUIN\SOURCE\REPOS\MFC20190923\DEBUG\MFC20190923.PCH
C:\USERS\SKUIN\SOURCE\REPOS\MFC20190923\DEBUG\VC141.PDB
C:\USERS\SKUIN\SOURCE\REPOS\MFC20190923\DEBUG\VC141.IDB
C:\USERS\SKUIN\SOURCE\REPOS\MFC20190923\DEBUG\STDAFX.OBJ
^C:\USERS\SKUIN\SOURCE\REPOS\MFC20190923\MAINFRM.CPP|C:\USERS\SKUIN\SOURCE\REPOS\MFC20190923\MFC20190923.CPP|C:\USERS\SKUIN\SOURCE\REPOS\MFC20190923\MFC20190923DOC.CPP|C:\USERS\SKUIN\SOURCE\REPOS\MFC20190923\MFC20190923VIEW.CPP
C:\USERS\SKUIN\SOURCE\REPOS\MFC20190923\DEBUG\VC141.PDB
C:\USERS\SKUIN\SOURCE\REPOS\MFC20190923\DEBUG\VC141.IDB
C:\USERS\SKUIN\SOURCE\REPOS\MFC20190923\DEBUG\MFC20190923VIEW.OBJ
C:\USERS\SKUIN\SOURCE\REPOS\MFC20190923\DEBUG\MFC20190923DOC.OBJ
C:\USERS\SKUIN\SOURCE\REPOS\MFC20190923\DEBUG\MFC20190923.OBJ
C:\USERS\SKUIN\SOURCE\REPOS\MFC20190923\DEBUG\MAINFRM.OBJ
^C:\USERS\SKUIN\SOURCE\REPOS\MFC20190923\MAINFRM.CPP
C:\USERS\SKUIN\SOURCE\REPOS\MFC20190923\DEBUG\VC141.PDB
^C:\USERS\SKUIN\SOURCE\REPOS\MFC20190923\MFC20190923.CPP
C:\USERS\SKUIN\SOURCE\REPOS\MFC20190923\DEBUG\VC141.PDB
^C:\USERS\SKUIN\SOURCE\REPOS\MFC20190923\MFC20190923DOC.CPP
C:\USERS\SKUIN\SOURCE\REPOS\MFC20190923\DEBUG\VC141.PDB
^C:\USERS\SKUIN\SOURCE\REPOS\MFC20190923\MFC20190923VIEW.CPP
C:\USERS\SKUIN\SOURCE\REPOS\MFC20190923\DEBUG\VC141.PDB
