^C:\USERS\SKUIN\DOWNLOADS\MAPEDITOR (1)\MAPEDITOR\MAPEDITOR.CPP|C:\USERS\SKUIN\DOWNLOADS\MAPEDITOR (1)\MAPEDITOR\MAPEDITORVIEW.CPP
C:\USERS\SKUIN\DOWNLOADS\MAPEDITOR (1)\MAPEDITOR\X64\DEBUG\VC141.PDB
C:\USERS\SKUIN\DOWNLOADS\MAPEDITOR (1)\MAPEDITOR\X64\DEBUG\VC141.IDB
C:\USERS\SKUIN\DOWNLOADS\MAPEDITOR (1)\MAPEDITOR\X64\DEBUG\MAPEDITORVIEW.OBJ
C:\USERS\SKUIN\DOWNLOADS\MAPEDITOR (1)\MAPEDITOR\X64\DEBUG\MAPEDITOR.OBJ
^C:\USERS\SKUIN\DOWNLOADS\MAPEDITOR (1)\MAPEDITOR\STDAFX.CPP
C:\USERS\SKUIN\DOWNLOADS\MAPEDITOR (1)\MAPEDITOR\X64\DEBUG\MAPEDITOR.PCH
C:\USERS\SKUIN\DOWNLOADS\MAPEDITOR (1)\MAPEDITOR\X64\DEBUG\VC141.PDB
C:\USERS\SKUIN\DOWNLOADS\MAPEDITOR (1)\MAPEDITOR\X64\DEBUG\VC141.IDB
C:\USERS\SKUIN\DOWNLOADS\MAPEDITOR (1)\MAPEDITOR\X64\DEBUG\STDAFX.OBJ
^C:\USERS\SKUIN\DOWNLOADS\MAPEDITOR (1)\MAPEDITOR\CCONTROLVIEW.CPP|C:\USERS\SKUIN\DOWNLOADS\MAPEDITOR (1)\MAPEDITOR\CTAP1.CPP|C:\USERS\SKUIN\DOWNLOADS\MAPEDITOR (1)\MAPEDITOR\CTAP2.CPP|C:\USERS\SKUIN\DOWNLOADS\MAPEDITOR (1)\MAPEDITOR\MAINFRM.CPP|C:\USERS\SKUIN\DOWNLOADS\MAPEDITOR (1)\MAPEDITOR\MAPEDITOR.CPP|C:\USERS\SKUIN\DOWNLOADS\MAPEDITOR (1)\MAPEDITOR\MAPEDITORVIEW.CPP
C:\USERS\SKUIN\DOWNLOADS\MAPEDITOR (1)\MAPEDITOR\X64\DEBUG\VC141.PDB
C:\USERS\SKUIN\DOWNLOADS\MAPEDITOR (1)\MAPEDITOR\X64\DEBUG\VC141.IDB
C:\USERS\SKUIN\DOWNLOADS\MAPEDITOR (1)\MAPEDITOR\X64\DEBUG\MAPEDITORVIEW.OBJ
C:\USERS\SKUIN\DOWNLOADS\MAPEDITOR (1)\MAPEDITOR\X64\DEBUG\MAPEDITOR.OBJ
C:\USERS\SKUIN\DOWNLOADS\MAPEDITOR (1)\MAPEDITOR\X64\DEBUG\MAINFRM.OBJ
C:\USERS\SKUIN\DOWNLOADS\MAPEDITOR (1)\MAPEDITOR\X64\DEBUG\CTAP2.OBJ
C:\USERS\SKUIN\DOWNLOADS\MAPEDITOR (1)\MAPEDITOR\X64\DEBUG\CTAP1.OBJ
C:\USERS\SKUIN\DOWNLOADS\MAPEDITOR (1)\MAPEDITOR\X64\DEBUG\CCONTROLVIEW.OBJ
^C:\USERS\SKUIN\DOWNLOADS\MAPEDITOR (1)\MAPEDITOR\CCONTROLVIEW.CPP|C:\USERS\SKUIN\DOWNLOADS\MAPEDITOR (1)\MAPEDITOR\CTAP1.CPP|C:\USERS\SKUIN\DOWNLOADS\MAPEDITOR (1)\MAPEDITOR\CTAP2.CPP|C:\USERS\SKUIN\DOWNLOADS\MAPEDITOR (1)\MAPEDITOR\CTAP3.CPP|C:\USERS\SKUIN\DOWNLOADS\MAPEDITOR (1)\MAPEDITOR\MAINFRM.CPP|C:\USERS\SKUIN\DOWNLOADS\MAPEDITOR (1)\MAPEDITOR\MAPEDITOR.CPP|C:\USERS\SKUIN\DOWNLOADS\MAPEDITOR (1)\MAPEDITOR\MAPEDITORDOC.CPP|C:\USERS\SKUIN\DOWNLOADS\MAPEDITOR (1)\MAPEDITOR\MAPEDITORVIEW.CPP
C:\USERS\SKUIN\DOWNLOADS\MAPEDITOR (1)\MAPEDITOR\X64\DEBUG\VC141.PDB
C:\USERS\SKUIN\DOWNLOADS\MAPEDITOR (1)\MAPEDITOR\X64\DEBUG\VC141.IDB
C:\USERS\SKUIN\DOWNLOADS\MAPEDITOR (1)\MAPEDITOR\X64\DEBUG\MAPEDITORVIEW.OBJ
C:\USERS\SKUIN\DOWNLOADS\MAPEDITOR (1)\MAPEDITOR\X64\DEBUG\MAPEDITORDOC.OBJ
C:\USERS\SKUIN\DOWNLOADS\MAPEDITOR (1)\MAPEDITOR\X64\DEBUG\MAPEDITOR.OBJ
C:\USERS\SKUIN\DOWNLOADS\MAPEDITOR (1)\MAPEDITOR\X64\DEBUG\MAINFRM.OBJ
C:\USERS\SKUIN\DOWNLOADS\MAPEDITOR (1)\MAPEDITOR\X64\DEBUG\CTAP3.OBJ
C:\USERS\SKUIN\DOWNLOADS\MAPEDITOR (1)\MAPEDITOR\X64\DEBUG\CTAP2.OBJ
C:\USERS\SKUIN\DOWNLOADS\MAPEDITOR (1)\MAPEDITOR\X64\DEBUG\CTAP1.OBJ
C:\USERS\SKUIN\DOWNLOADS\MAPEDITOR (1)\MAPEDITOR\X64\DEBUG\CCONTROLVIEW.OBJ
^C:\USERS\SKUIN\DOWNLOADS\MAPEDITOR (1)\MAPEDITOR\CCONTROLVIEW.CPP
C:\USERS\SKUIN\DOWNLOADS\MAPEDITOR (1)\MAPEDITOR\X64\DEBUG\VC141.PDB
^C:\USERS\SKUIN\DOWNLOADS\MAPEDITOR (1)\MAPEDITOR\CTAP1.CPP
C:\USERS\SKUIN\DOWNLOADS\MAPEDITOR (1)\MAPEDITOR\X64\DEBUG\VC141.PDB
^C:\USERS\SKUIN\DOWNLOADS\MAPEDITOR (1)\MAPEDITOR\CTAP2.CPP
C:\USERS\SKUIN\DOWNLOADS\MAPEDITOR (1)\MAPEDITOR\X64\DEBUG\VC141.PDB
^C:\USERS\SKUIN\DOWNLOADS\MAPEDITOR (1)\MAPEDITOR\CTAP3.CPP
C:\USERS\SKUIN\DOWNLOADS\MAPEDITOR (1)\MAPEDITOR\X64\DEBUG\VC141.PDB
^C:\USERS\SKUIN\DOWNLOADS\MAPEDITOR (1)\MAPEDITOR\MAINFRM.CPP
C:\USERS\SKUIN\DOWNLOADS\MAPEDITOR (1)\MAPEDITOR\X64\DEBUG\VC141.PDB
^C:\USERS\SKUIN\DOWNLOADS\MAPEDITOR (1)\MAPEDITOR\MAPEDITOR.CPP
C:\USERS\SKUIN\DOWNLOADS\MAPEDITOR (1)\MAPEDITOR\X64\DEBUG\VC141.PDB
^C:\USERS\SKUIN\DOWNLOADS\MAPEDITOR (1)\MAPEDITOR\MAPEDITORDOC.CPP
C:\USERS\SKUIN\DOWNLOADS\MAPEDITOR (1)\MAPEDITOR\X64\DEBUG\VC141.PDB
^C:\USERS\SKUIN\DOWNLOADS\MAPEDITOR (1)\MAPEDITOR\MAPEDITORVIEW.CPP
C:\USERS\SKUIN\DOWNLOADS\MAPEDITOR (1)\MAPEDITOR\X64\DEBUG\VC141.PDB
