^C:\JU\KPU\4-2\프로그래밍응용\SOURCE\EXHELLOMFC\STDAFX.CPP
C:\JU\KPU\4-2\프로그래밍응용\SOURCE\EXHELLOMFC\DEBUG\EXHELLOMFC.PCH
C:\JU\KPU\4-2\프로그래밍응용\SOURCE\EXHELLOMFC\DEBUG\VC141.PDB
C:\JU\KPU\4-2\프로그래밍응용\SOURCE\EXHELLOMFC\DEBUG\VC141.IDB
C:\JU\KPU\4-2\프로그래밍응용\SOURCE\EXHELLOMFC\DEBUG\STDAFX.OBJ
^C:\JU\KPU\4-2\프로그래밍응용\SOURCE\EXHELLOMFC\EXHELLOMFC.CPP|C:\JU\KPU\4-2\프로그래밍응용\SOURCE\EXHELLOMFC\EXHELLOMFCDOC.CPP|C:\JU\KPU\4-2\프로그래밍응용\SOURCE\EXHELLOMFC\EXHELLOMFCVIEW.CPP|C:\JU\KPU\4-2\프로그래밍응용\SOURCE\EXHELLOMFC\MAINFRM.CPP
C:\JU\KPU\4-2\프로그래밍응용\SOURCE\EXHELLOMFC\DEBUG\VC141.PDB
C:\JU\KPU\4-2\프로그래밍응용\SOURCE\EXHELLOMFC\DEBUG\VC141.IDB
C:\JU\KPU\4-2\프로그래밍응용\SOURCE\EXHELLOMFC\DEBUG\MAINFRM.OBJ
C:\JU\KPU\4-2\프로그래밍응용\SOURCE\EXHELLOMFC\DEBUG\EXHELLOMFCVIEW.OBJ
C:\JU\KPU\4-2\프로그래밍응용\SOURCE\EXHELLOMFC\DEBUG\EXHELLOMFCDOC.OBJ
C:\JU\KPU\4-2\프로그래밍응용\SOURCE\EXHELLOMFC\DEBUG\EXHELLOMFC.OBJ
^C:\JU\KPU\4-2\프로그래밍응용\SOURCE\EXHELLOMFC\EXHELLOMFCDOC.CPP
C:\JU\KPU\4-2\프로그래밍응용\SOURCE\EXHELLOMFC\DEBUG\VC141.PDB
^C:\JU\KPU\4-2\프로그래밍응용\SOURCE\EXHELLOMFC\EXHELLOMFC.CPP|C:\JU\KPU\4-2\프로그래밍응용\SOURCE\EXHELLOMFC\EXHELLOMFCVIEW.CPP|C:\JU\KPU\4-2\프로그래밍응용\SOURCE\EXHELLOMFC\MAINFRM.CPP
C:\JU\KPU\4-2\프로그래밍응용\SOURCE\EXHELLOMFC\DEBUG\VC141.PDB
C:\JU\KPU\4-2\프로그래밍응용\SOURCE\EXHELLOMFC\DEBUG\VC141.IDB
C:\JU\KPU\4-2\프로그래밍응용\SOURCE\EXHELLOMFC\DEBUG\MAINFRM.OBJ
^C:\JU\KPU\4-2\프로그래밍응용\SOURCE\EXHELLOMFC\MAINFRM.CPP
C:\JU\KPU\4-2\프로그래밍응용\SOURCE\EXHELLOMFC\DEBUG\MAINFRM.OBJ
^C:\JU\KPU\4-2\프로그래밍응용\SOURCE\EXHELLOMFC\EXHELLOMFC.CPP|C:\JU\KPU\4-2\프로그래밍응용\SOURCE\EXHELLOMFC\EXHELLOMFCVIEW.CPP
C:\JU\KPU\4-2\프로그래밍응용\SOURCE\EXHELLOMFC\DEBUG\VC141.PDB
C:\JU\KPU\4-2\프로그래밍응용\SOURCE\EXHELLOMFC\DEBUG\VC141.IDB
C:\JU\KPU\4-2\프로그래밍응용\SOURCE\EXHELLOMFC\DEBUG\EXHELLOMFCVIEW.OBJ
C:\JU\KPU\4-2\프로그래밍응용\SOURCE\EXHELLOMFC\DEBUG\EXHELLOMFC.OBJ
^C:\JU\KPU\4-2\프로그래밍응용\SOURCE\EXHELLOMFC\EXHELLOMFC.CPP
C:\JU\KPU\4-2\프로그래밍응용\SOURCE\EXHELLOMFC\DEBUG\VC141.PDB
^C:\JU\KPU\4-2\프로그래밍응용\SOURCE\EXHELLOMFC\EXHELLOMFCVIEW.CPP
C:\JU\KPU\4-2\프로그래밍응용\SOURCE\EXHELLOMFC\DEBUG\VC141.PDB
C:\JU\KPU\4-2\프로그래밍응용\SOURCE\EXHELLOMFC\DEBUG\VC141.IDB
C:\JU\KPU\4-2\프로그래밍응용\SOURCE\EXHELLOMFC\DEBUG\EXHELLOMFCVIEW.OBJ
