^C:\JU\KPU\4-2\프로그래밍응용\SOURCE\EXKEYINPUT\STDAFX.CPP
/c /ZI /JMC /nologo /W3 /WX- /diagnostics:classic /sdl /Od /Oy- /D WIN32 /D _WINDOWS /D _DEBUG /D _UNICODE /D UNICODE /D _AFXDLL /Gm- /EHsc /RTC1 /MDd /GS /fp:precise /Zc:wchar_t /Zc:forScope /Zc:inline /Yc"stdafx.h" /Fp"DEBUG\EXKEYINPUT.PCH" /Fo"DEBUG\\" /Fd"DEBUG\VC141.PDB" /Gd /TP /analyze- /FC C:\JU\KPU\4-2\프로그래밍응용\SOURCE\EXKEYINPUT\STDAFX.CPP
^C:\JU\KPU\4-2\프로그래밍응용\SOURCE\EXKEYINPUT\EXKEYINPUT.CPP
/c /ZI /JMC /nologo /W3 /WX- /diagnostics:classic /sdl /Od /Oy- /D WIN32 /D _WINDOWS /D _DEBUG /D _UNICODE /D UNICODE /D _AFXDLL /Gm- /EHsc /RTC1 /MDd /GS /fp:precise /Zc:wchar_t /Zc:forScope /Zc:inline /Yu"stdafx.h" /Fp"DEBUG\EXKEYINPUT.PCH" /Fo"DEBUG\\" /Fd"DEBUG\VC141.PDB" /Gd /TP /analyze- /FC C:\JU\KPU\4-2\프로그래밍응용\SOURCE\EXKEYINPUT\EXKEYINPUT.CPP
^C:\JU\KPU\4-2\프로그래밍응용\SOURCE\EXKEYINPUT\EXKEYINPUTDOC.CPP
/c /ZI /JMC /nologo /W3 /WX- /diagnostics:classic /sdl /Od /Oy- /D WIN32 /D _WINDOWS /D _DEBUG /D _UNICODE /D UNICODE /D _AFXDLL /Gm- /EHsc /RTC1 /MDd /GS /fp:precise /Zc:wchar_t /Zc:forScope /Zc:inline /Yu"stdafx.h" /Fp"DEBUG\EXKEYINPUT.PCH" /Fo"DEBUG\\" /Fd"DEBUG\VC141.PDB" /Gd /TP /analyze- /FC C:\JU\KPU\4-2\프로그래밍응용\SOURCE\EXKEYINPUT\EXKEYINPUTDOC.CPP
^C:\JU\KPU\4-2\프로그래밍응용\SOURCE\EXKEYINPUT\MAINFRM.CPP
/c /ZI /JMC /nologo /W3 /WX- /diagnostics:classic /sdl /Od /Oy- /D WIN32 /D _WINDOWS /D _DEBUG /D _UNICODE /D UNICODE /D _AFXDLL /Gm- /EHsc /RTC1 /MDd /GS /fp:precise /Zc:wchar_t /Zc:forScope /Zc:inline /Yu"stdafx.h" /Fp"DEBUG\EXKEYINPUT.PCH" /Fo"DEBUG\\" /Fd"DEBUG\VC141.PDB" /Gd /TP /analyze- /FC C:\JU\KPU\4-2\프로그래밍응용\SOURCE\EXKEYINPUT\MAINFRM.CPP
^C:\JU\KPU\4-2\프로그래밍응용\SOURCE\EXKEYINPUT\EXKEYINPUTVIEW.CPP
/c /ZI /JMC /nologo /W3 /WX- /diagnostics:classic /sdl /Od /Oy- /D WIN32 /D _WINDOWS /D _DEBUG /D _UNICODE /D UNICODE /D _AFXDLL /Gm- /EHsc /RTC1 /MDd /GS /fp:precise /Zc:wchar_t /Zc:forScope /Zc:inline /Yu"stdafx.h" /Fp"DEBUG\EXKEYINPUT.PCH" /Fo"DEBUG\\" /Fd"DEBUG\VC141.PDB" /Gd /TP /analyze- /FC C:\JU\KPU\4-2\프로그래밍응용\SOURCE\EXKEYINPUT\EXKEYINPUTVIEW.CPP
