^C:\JU\KPU\4-2\프로그래밍응용\SOURCE\EXKEYINPUT\STDAFX.CPP
C:\JU\KPU\4-2\프로그래밍응용\SOURCE\EXKEYINPUT\DEBUG\EXKEYINPUT.PCH
C:\JU\KPU\4-2\프로그래밍응용\SOURCE\EXKEYINPUT\DEBUG\VC141.PDB
C:\JU\KPU\4-2\프로그래밍응용\SOURCE\EXKEYINPUT\DEBUG\VC141.IDB
C:\JU\KPU\4-2\프로그래밍응용\SOURCE\EXKEYINPUT\DEBUG\STDAFX.OBJ
^C:\JU\KPU\4-2\프로그래밍응용\SOURCE\EXKEYINPUT\EXKEYINPUT.CPP|C:\JU\KPU\4-2\프로그래밍응용\SOURCE\EXKEYINPUT\EXKEYINPUTDOC.CPP|C:\JU\KPU\4-2\프로그래밍응용\SOURCE\EXKEYINPUT\EXKEYINPUTVIEW.CPP|C:\JU\KPU\4-2\프로그래밍응용\SOURCE\EXKEYINPUT\MAINFRM.CPP
C:\JU\KPU\4-2\프로그래밍응용\SOURCE\EXKEYINPUT\DEBUG\VC141.PDB
C:\JU\KPU\4-2\프로그래밍응용\SOURCE\EXKEYINPUT\DEBUG\VC141.IDB
C:\JU\KPU\4-2\프로그래밍응용\SOURCE\EXKEYINPUT\DEBUG\MAINFRM.OBJ
C:\JU\KPU\4-2\프로그래밍응용\SOURCE\EXKEYINPUT\DEBUG\EXKEYINPUTDOC.OBJ
C:\JU\KPU\4-2\프로그래밍응용\SOURCE\EXKEYINPUT\DEBUG\EXKEYINPUT.OBJ
^C:\JU\KPU\4-2\프로그래밍응용\SOURCE\EXKEYINPUT\EXKEYINPUT.CPP
C:\JU\KPU\4-2\프로그래밍응용\SOURCE\EXKEYINPUT\DEBUG\EXKEYINPUT.OBJ
^C:\JU\KPU\4-2\프로그래밍응용\SOURCE\EXKEYINPUT\EXKEYINPUTDOC.CPP
C:\JU\KPU\4-2\프로그래밍응용\SOURCE\EXKEYINPUT\DEBUG\EXKEYINPUTDOC.OBJ
^C:\JU\KPU\4-2\프로그래밍응용\SOURCE\EXKEYINPUT\MAINFRM.CPP
C:\JU\KPU\4-2\프로그래밍응용\SOURCE\EXKEYINPUT\DEBUG\MAINFRM.OBJ
^C:\JU\KPU\4-2\프로그래밍응용\SOURCE\EXKEYINPUT\EXKEYINPUTVIEW.CPP
C:\JU\KPU\4-2\프로그래밍응용\SOURCE\EXKEYINPUT\DEBUG\VC141.PDB
C:\JU\KPU\4-2\프로그래밍응용\SOURCE\EXKEYINPUT\DEBUG\VC141.IDB
C:\JU\KPU\4-2\프로그래밍응용\SOURCE\EXKEYINPUT\DEBUG\EXKEYINPUTVIEW.OBJ
